…
joined_set %>% select(`Undergraduate Major`, unemployment_rate) %>% arrange(unemployment_rate)

## # A tibble: 24 x 2
##    `Undergraduate Major`  unemployment_rate
##    <chr>                              <dbl>
##  1 Nursing                           0.0449
##  2 Physics                           0.0482
##  3 Chemistry                         0.0540
##  4 Mechanical Engineering            0.0573
##  5 Electrical Engineering            0.0592
##  6 Finance                           0.0607
##  7 Chemical Engineering              0.0611
##  8 Computer Science                  0.0632
##  9 Aerospace Engineering             0.0652
## 10 Computer Engineering              0.0654
## # ... with 14 more rows
…
